<?xml version="1.0" standalone="no"?>
<!DOCTYPE svg PUBLIC "-//W3C//DTD SVG 1.1//EN" "http://www.w3.org/Graphics/SVG/1.1/DTD/svg11.dtd" >
<svg xmlns="http://www.w3.org/2000/svg">
<metadata>
<json>
<![CDATA[
{
	"fontFamily": "flower",
	"majorVersion": 1,
	"minorVersion": 0,
	"version": "Version 1.0",
	"fontId": "flower",
	"psName": "flower",
	"subFamily": "Regular",
	"fullName": "flower",
	"description": "Font generated by IcoMoon."
}
]]>
</json>
</metadata>
<defs>
<font id="flower" horiz-adv-x="1024">
<font-face units-per-em="1024" ascent="960" descent="-64" />
<missing-glyph horiz-adv-x="1024" />
<glyph unicode="&#x20;" horiz-adv-x="512" d="" />
<glyph unicode="&#xe900;" glyph-name="flower" data-tags="flower" horiz-adv-x="1161" d="M303.922 373.552c-99.059 38.378-149.857 69.625-193.019 146.768-47.937 85.614-38.52 191.884-1.316 238.789 59.766 75.417 147.343 56.803 214.887 4.366 63.21-48.97 132.386-143.899 158.368-197.574-8.511 124.324 10.142 248.151 87.372 321.093 102.148 96.434 251.713 35.076 301.967-84.093 58.513-138.832-39.742-299.966-133.434-398.315 77.828 81.658 386.691 239.971 386.754 26.605 0.079-189.37-159.692-210.372-312.85-208.992 66.22-37.078 121.81-91.265 99.902-151.551-26.983-74.117-154.908-117.893-259.341-107.79-79.31 7.644-108.823 23.185-127.539 77.868-14.201 41.365-20.363 87.348-18.819 126.034-26.731-15.848-59.175-35.778-121.747-53.383-70.547-19.827-135.49-27.369-206.928-4.311-132.157 42.508-191.679 139.005-95.347 210.198 46.164 34.107 128.855 55.81 221.089 54.289z" />
</font></defs></svg>